1024
380.017153 35.165183 67.731447 1.149664 1.459124
116.409567 64.429672 91.022152 1.481954 -1.157157
185.048684 58.874585 30.257556 -0.277341 0.419691
129.101162 59.783531 65.434901 2.086178 -1.324591
161.050037 42.417234 56.793469 -0.886111 -0.067563
223.944487 47.282224 50.490633 -1.779327 -1.009125
183.910466 65.609648 24.083759 -3.370513 -2.060371
310.448690 37.515015 41.883027 1.420603 -3.605977
180.054507 53.486603 46.606965 -1.322095 0.308110
156.590649 67.099605 56.564865 3.036711 1.712777
108.542032 89.663073 81.321683 -1.878371 -2.855593
126.440668 55.693864 83.394824 -1.248664 -0.299126
209.750366 1.551472 81.005954 0.887303 -0.024443
114.544150 79.782414 39.719848 -2.353397 1.846388
280.750406 34.949660 52.120352 0.668716 -1.771820
272.848285 92.312138 61.154633 -0.416296 -2.129095
101.249023 50.904550 48.639710 0.431368 -1.670635
166.335023 54.724173 58.846292 -1.182468 -1.673450
107.277899 47.818267 39.279757 -0.979944 0.993665
139.569645 15.156602 76.326136 1.345040 -1.048440
172.568932 59.326907 83.750243 1.866160 0.307103
122.323708 59.301055 63.888109 1.313597 0.188010
254.452551 86.061869 71.971043 -1.379245 1.242944
180.208523 37.414547 69.755001 -0.671996 -2.371215
100.522441 61.239163 58.871806 2.911159 1.698301
104.347304 117.512806 41.989926 -0.692886 -1.003435
203.841295 97.507201 86.568144 -0.985541 0.870673
320.956796 61.961972 82.064852 0.334132 1.261312
292.745127 26.391938 51.638845 -1.157564 -2.082091
254.119259 60.503820 64.290811 1.825541 0.074972
291.403619 20.435143 79.266695 2.100616 -0.730975
139.706318 66.182933 65.107961 3.449921 -0.345550
179.477255 19.939184 75.375523 0.859616 2.691746
154.971016 52.381433 98.256029 -2.836177 -2.230249
161.225864 59.521833 91.938149 -0.996131 0.795395
190.389071 67.608703 53.365528 -2.286073 -3.947889
146.982631 70.652149 47.675265 2.854469 -2.866684
135.328449 37.354170 95.422388 0.025367 -1.859732
135.525839 37.355960 69.945093 -3.186775 3.370050
213.270375 29.347932 64.269666 0.105846 -1.507077
188.929077 33.488085 75.082648 -0.958265 -3.581474
154.849838 34.196369 43.073010 -6.125967 0.738582
109.899432 50.768794 38.090982 2.384424 3.584370
164.169628 46.946375 53.179337 -0.354865 0.865110
195.298883 24.622239 67.031253 -3.064811 1.723508
251.394297 68.655860 82.971357 -3.610759 2.308714
144.596903 58.529992 55.672706 2.885134 3.318749
168.201756 66.803428 65.133850 -3.910235 -2.591137
246.457976 9.562616 61.679871 -1.498695 -1.468559
135.362255 52.124647 43.871844 0.120814 -2.768339
109.391874 55.406578 76.720195 1.673841 -0.353534
218.013598 51.154257 59.373600 1.017535 0.170364
217.919595 67.916286 45.768251 2.484278 0.506393
176.686996 77.113340 63.740846 3.657857 -0.004714
170.793462 31.495992 54.204373 -0.911055 0.519035
224.387685 51.102536 44.661235 2.458719 4.023229
169.086599 55.297684 67.222385 1.678381 -0.299950
289.240476 62.324244 53.033903 -0.385578 -2.173090
146.103429 61.449101 60.852417 -0.847878 -4.930838
152.288125 38.373614 83.779636 -0.214551 2.257168
103.422806 78.575447 45.883781 0.662367 2.343771
360.197282 68.163228 58.862348 -0.739110 -0.431542
146.093977 38.907988 59.416400 2.099108 0.799660
229.192145 80.648334 87.415194 -0.125903 1.884342
235.869653 78.446606 60.753215 3.099401 -0.934353
157.925543 43.888361 31.685056 3.837121 -0.821974
132.115230 42.338625 44.813190 2.322814 -1.802506
161.505587 107.734628 59.800253 -0.911594 1.215661
217.494356 48.058185 44.056097 -3.286660 0.016661
108.190277 58.191726 75.747578 4.438267 -1.660437
195.175527 30.730223 75.081745 2.161561 2.199339
114.154737 59.879611 39.485097 1.410869 -0.062088
176.368354 50.452825 56.526764 2.235566 1.002701
126.901467 104.122817 57.427130 0.472877 1.554293
176.615878 65.063183 95.932974 1.383754 1.050354
182.730485 1.622148 94.680488 0.309791 -3.077680
277.614091 77.164015 65.094019 -2.457209 0.161635
167.119601 76.054002 42.663097 0.002436 -4.866807
237.575712 86.227892 61.036869 0.373100 1.155839
178.131836 74.682437 49.083737 -3.596457 -0.032539
154.786711 79.835498 56.656102 0.494839 -1.968374
131.015579 84.074624 47.796699 0.159197 0.086618
297.994627 63.002517 45.388708 -1.351247 1.195920
171.924161 49.067664 64.110378 -0.093285 -0.163353
110.240509 37.510231 74.601117 1.944538 -1.006533
161.690001 63.690517 66.644140 -2.027238 1.140889
117.078643 54.925736 49.312609 -1.494256 -2.679697
144.994121 83.276955 47.890407 -1.015299 4.752406
166.612680 41.828565 55.653354 3.725020 1.145415
110.337974 68.595920 54.053423 -0.043908 2.109882
117.637878 83.959005 37.204254 2.209025 0.248770
162.952001 59.290417 32.405438 0.228092 1.430979
185.502495 81.325749 24.596591 -1.519213 0.949779
105.970145 67.060607 48.559445 -2.068292 -1.489192
169.814434 44.419655 63.453075 -2.286205 0.597965
300.365180 60.912183 47.753936 0.413302 -2.190191
337.094779 81.045326 75.659803 3.210101 1.429568
108.926869 51.805561 61.998137 1.189806 2.046371
146.054380 43.139435 66.233152 4.685223 0.927845
180.828180 12.898068 24.345146 2.715612 0.492214
240.207764 47.248840 76.806124 -3.951946 1.032917
201.578245 74.814013 45.246432 -0.987788 0.666091
172.011235 21.931137 65.547961 1.128886 -0.869322
100.725074 101.150882 41.411268 5.787197 1.305710
181.550497 104.222119 66.909221 -1.733783 0.248206
118.453384 65.324655 52.839233 -0.114415 4.194273
159.228728 80.125743 100.458099 3.098596 0.701410
113.102215 98.006467 78.278425 1.379544 1.790731
150.939108 79.475004 41.945145 -0.907051 1.190531
226.884370 48.101777 53.549171 0.307210 -0.708183
148.251488 30.581495 28.413146 0.611873 -1.991691
174.849633 69.784355 36.098208 1.181042 0.724448
199.902759 92.328597 58.112565 2.218980 1.562442
135.284927 73.103379 44.483331 1.789095 -0.021779
125.291949 72.508662 46.968904 4.038435 -1.600698
116.311579 60.763531 56.679294 -2.689390 -0.628870
143.226911 32.184680 43.083684 1.315004 -4.433452
223.187287 87.156506 97.585152 0.344861 -0.413652
110.425002 72.726832 54.585153 -3.830330 -3.050502
248.548104 80.027775 67.092228 -0.486023 2.563967
122.773868 89.203716 75.416829 -0.709775 -1.585981
171.528552 66.760924 62.835745 0.481580 1.698505
102.747819 24.522074 73.280035 1.468759 1.420677
171.257780 19.677760 49.079852 -1.228087 0.978241
224.086189 42.206144 30.923276 0.732099 -4.434992
102.750589 43.922995 46.923240 2.063201 0.249692
211.940748 68.820703 51.642783 5.540448 0.382233
163.547938 55.512004 39.740512 -1.560182 0.347576
191.613462 75.382932 28.034052 0.237274 -3.214441
120.498002 48.714753 44.470788 0.494728 0.553988
250.599338 26.323111 69.565367 0.743402 1.659065
156.997836 44.018225 29.098347 2.674638 1.714412
184.530880 59.610671 110.994145 -0.012174 -1.071780
122.753769 59.410048 90.996963 -1.347341 0.246764
209.232219 86.822480 66.132519 2.578489 0.260714
153.820487 26.665512 74.689406 1.217127 -0.815691
132.009476 59.280620 58.182732 0.710229 -3.273530
157.846392 47.199462 48.989737 -0.678239 1.570826
103.036314 74.637645 48.184465 -0.610874 0.567372
111.830619 13.391876 31.251933 2.597444 0.643441
143.066671 42.492927 35.964705 -0.716341 -1.402527
166.111348 46.282419 61.418011 2.462652 -0.096972
120.878598 32.474188 73.431635 1.809960 1.676877
137.251722 43.526251 61.529162 -1.599817 -2.800908
226.101496 65.929687 48.251232 1.486171 1.814672
213.468790 33.566715 97.177008 -1.496845 -0.424814
211.107344 105.972976 67.394768 -0.583663 -3.455821
205.814294 91.142478 26.257710 -0.908372 1.778803
137.599252 48.848927 57.334362 2.720931 0.643598
171.352517 63.620558 46.734288 -2.035924 0.696507
159.778819 67.083087 64.608363 -1.784843 0.306650
285.652089 87.194797 66.780627 2.814837 -0.829051
109.997061 68.437436 70.163695 -1.323394 -5.983817
173.788987 28.996957 57.665400 2.134100 -3.568139
141.824601 66.269056 68.113784 2.853963 -1.690788
267.415194 53.558672 78.344440 2.533863 -2.705504
291.691303 79.560065 89.491723 1.947499 -1.986471
253.427931 35.318041 61.627673 1.545727 -0.233504
133.273520 79.642490 88.127632 0.783474 2.569999
261.891395 68.307552 74.647654 0.173206 -2.683420
183.347725 41.916972 61.141375 -0.545172 0.334111
278.078918 51.049867 88.588221 3.876650 -2.771372
327.220171 34.608648 71.331212 1.125259 0.265058
181.175824 64.074129 52.785035 1.233807 0.243412
182.605504 44.472297 61.284038 4.213072 2.285086
161.720104 22.792023 50.373172 -2.726990 1.123248
235.393103 109.254375 60.809457 -0.588079 -1.524493
230.201004 89.712898 78.335601 2.381129 -0.304276
176.930995 69.703052 56.518747 -0.472534 -0.492654
147.434584 67.222238 58.801598 -0.378394 -1.138172
120.050851 48.259581 68.701255 0.922126 -0.572576
194.122120 67.539334 57.984712 -2.484103 0.673523
113.595338 75.463425 73.723036 -1.029879 1.790769
132.968817 78.237345 48.043224 -1.909405 0.041793
192.064785 95.057311 37.668765 2.839901 2.620874
157.248577 44.714771 51.846525 3.140008 0.153093
154.386282 21.402263 49.777468 1.911626 1.026045
128.699366 56.228628 62.899578 1.171651 0.003123
296.986519 109.933251 48.549489 2.597351 1.207552
241.416727 47.819883 92.268501 -1.741367 1.042616
109.559610 31.699296 51.857294 3.981155 1.324664
297.022543 35.427295 64.005079 -0.709037 -0.466878
209.774463 76.687262 81.277166 1.150257 0.113669
143.145508 54.027977 68.356232 1.605292 1.666721
249.252876 60.871059 80.844072 5.242239 0.610282
227.023428 69.660681 85.974434 1.400086 -1.209671
116.831936 76.462645 75.989094 1.132950 3.906513
162.180947 77.059934 74.252721 1.938865 1.453778
157.722224 67.571521 94.668445 0.807790 0.281208
110.778527 93.645311 66.029137 -1.128288 4.305280
103.709674 60.125047 48.877057 -1.905326 -0.826067
165.277407 82.946038 87.291504 -1.452618 2.513019
181.755372 45.785190 79.922040 1.282704 1.968807
283.485788 51.483811 18.547469 -1.071783 0.225878
126.419555 71.593946 57.943125 -1.974082 0.167056
142.816973 120.175048 67.903980 2.640224 0.327397
237.240233 39.049677 26.652286 -1.787509 -1.664147
102.169481 76.951865 83.929209 1.417368 6.981349
188.871589 97.077864 41.004786 -0.808534 3.240521
127.748035 76.343405 69.483381 -1.438395 0.327320
220.456802 73.070104 90.258592 -0.061444 -0.582461
102.757535 117.695931 42.513783 -2.390064 1.455030
130.592045 74.951801 73.078505 0.706425 -5.836038
287.736807 84.445758 49.019856 -2.772442 -1.587887
123.540413 38.722812 0.000000 0.202549 -0.396512
110.773664 74.343028 62.425214 -1.788663 2.094098
175.827084 43.968977 51.867188 0.366553 -2.729677
347.538817 5.415741 54.714202 -0.681539 1.326813
204.432159 44.725621 27.111157 1.728938 -1.977702
209.222000 88.203876 36.488141 -1.074556 -0.706270
171.976773 48.079547 77.031581 -2.081452 -3.997062
154.259563 58.149525 69.901957 -1.137712 2.999343
169.100838 55.381304 33.207108 -2.591465 -1.940247
211.735008 63.777330 81.696188 -0.848040 4.812037
150.090674 55.338272 48.470177 2.252174 0.983819
151.938969 76.398708 45.399004 -1.135273 2.186791
111.401585 54.554524 78.677351 -0.286666 1.431532
100.134562 49.901212 96.230646 3.036181 2.281627
118.650371 27.716371 45.549580 0.751280 2.006948
103.312064 59.439983 85.534099 -0.821369 -0.028698
210.267544 64.457920 13.901327 -0.990503 -4.683812
207.649839 72.063200 50.602375 -0.017241 1.212670
187.525634 44.989134 41.699908 0.412290 -0.893637
146.711579 46.597612 57.428982 1.675789 -2.803581
156.826669 20.401058 69.817404 -1.419528 0.672197
243.732617 79.752125 67.340363 -0.218341 -0.753226
221.119131 72.757337 55.517724 -1.419732 -1.777209
197.905174 69.896082 73.019153 -1.229628 -1.437060
130.113738 64.478880 31.042384 -0.787311 -3.329855
132.561187 78.008741 61.094727 -2.317901 -0.267312
107.576666 111.273442 73.910501 -0.250204 0.886710
129.674159 77.597198 57.918484 -4.300930 -0.276145
252.450513 42.592006 39.357433 0.491896 -0.054166
233.818271 34.446672 31.385726 1.103386 1.929351
129.281419 59.880864 47.271204 -1.488522 -0.648230
190.417158 63.907643 56.240121 -1.990694 -0.616265
120.875648 33.690420 64.502199 0.391648 -0.974298
195.623265 93.759107 46.899583 -0.697536 3.679663
179.157065 68.964397 60.884643 4.832676 -2.203793
175.617484 74.502684 74.455574 1.771608 -1.968727
131.915939 47.040683 59.711853 -0.834070 2.518618
326.775806 77.228821 95.191749 -2.941486 4.622861
219.884300 71.282946 67.007404 -0.646710 -3.277605
146.666019 79.733447 25.220841 -1.449420 3.666604
135.423437 57.034320 35.342035 3.345783 2.416132
103.826671 59.702959 59.779765 -0.458900 -2.582548
102.006386 51.831498 70.862028 0.147702 -4.795727
111.007399 79.922548 64.863903 -0.402835 0.943123
115.724021 97.988768 64.859029 -1.238460 -1.333124
132.657917 77.869854 71.197858 -1.671514 1.171896
120.038257 73.076849 60.965768 0.063259 1.096079
133.027798 24.674545 51.779115 -0.579083 4.243678
131.742363 77.950712 81.792963 0.351921 -1.029455
120.981617 64.096342 51.756591 -0.220659 1.113079
166.013483 64.249420 70.197095 -0.461440 -1.615317
132.105269 49.396604 70.446518 0.499814 -0.335228
101.344785 82.966308 88.141129 -2.087552 -1.814013
154.570140 22.463061 60.345442 2.205814 -1.902913
189.579233 60.114915 21.516527 4.330205 -2.606941
134.046084 68.365219 42.165030 0.099822 -0.298027
209.885993 55.768006 86.088444 -0.438615 -0.589087
267.205407 83.848192 51.640207 -1.765230 -3.150733
182.955172 60.817596 53.706610 1.068271 3.633502
151.298039 46.820421 52.614667 -1.486856 -1.756713
202.244801 67.627798 60.381241 3.084362 -0.103642
122.261568 27.628406 5.553913 -1.753794 2.934583
119.323431 70.442794 20.274423 -1.509442 2.552765
173.815080 101.455061 28.845639 -4.347472 -0.874937
234.142712 75.154378 50.547346 0.095348 2.842394
239.621487 79.281275 75.925284 -0.382853 1.356893
102.993965 79.131384 17.474333 -0.562261 1.220237
116.937567 101.780504 47.956217 2.087907 1.402975
151.649742 65.425874 60.292793 2.062767 0.988572
218.900504 53.840984 44.932305 2.678536 1.602094
170.940201 90.410238 85.776011 1.208495 -0.845618
203.198823 29.321399 48.311658 -1.401280 2.076267
121.699125 73.854728 23.571836 -0.855171 -0.943745
174.032128 68.382603 78.003018 -3.736251 -0.961343
111.340275 56.329204 39.925330 0.768409 1.739315
117.630925 28.143014 64.834682 0.935669 -2.621755
138.156000 29.984524 74.016592 1.861973 -0.246369
212.505854 85.050922 57.679108 1.120147 -1.668795
215.963780 96.986509 84.873293 -1.253870 2.385818
112.317789 63.441797 74.931287 -2.593056 -0.259406
154.283744 66.445318 68.982514 0.471515 -0.134289
398.167280 36.253568 99.106785 -0.190812 1.348095
100.771240 71.563583 35.967188 1.716251 -2.665537
124.350344 11.748803 68.354544 -1.181390 4.935316
108.348982 73.837262 54.179648 0.131519 -3.794492
223.134664 36.292788 55.547896 3.249677 1.263896
114.167204 68.539036 79.240406 -0.041476 -1.506118
143.663081 97.264507 66.156785 1.215581 0.956941
118.398777 60.848121 37.706133 1.570839 -4.260514
219.412049 42.723855 58.431590 2.475500 0.569685
135.383065 34.755406 50.401214 1.407611 -0.887242
206.908957 33.685830 94.586253 -1.281557 2.231102
125.325087 59.040515 59.039655 -1.477577 -2.354283
333.399697 80.449672 30.806421 -1.322728 -1.310421
103.383122 90.610004 43.574815 0.091717 2.673194
267.673390 93.131582 76.019075 -1.515330 -1.814445
135.505752 74.023142 37.399635 2.087171 -1.002888
226.201183 48.977628 86.643825 1.973814 -0.551553
183.147677 18.366403 53.429293 1.604797 -0.470342
114.696817 76.436169 92.215746 0.653033 4.307972
167.895906 75.846826 51.813494 -0.589501 0.021205
258.740853 46.004153 70.295603 -2.194909 -1.992582
121.359139 74.103660 47.429946 2.119161 -0.218713
242.062892 68.980882 41.931328 -0.362957 0.482263
161.532691 32.591804 56.691306 0.390508 -1.953948
270.333171 68.537877 81.019834 -3.002223 -0.177243
231.291882 37.854329 62.816790 0.473944 0.976394
237.049429 65.500225 37.983040 1.918777 -0.242263
100.565057 73.443767 51.086515 -1.130229 0.293707
240.011223 34.646712 32.520838 -2.065026 0.951987
103.966888 56.929751 62.065619 -2.118362 2.112987
126.873393 112.689957 58.349382 1.250387 0.331274
178.306270 43.448642 20.077767 -2.446594 -0.043461
254.751825 56.567008 58.500611 -0.588899 -1.353066
219.680384 56.481504 38.657993 -1.023713 -1.157053
222.525957 27.057269 104.893058 1.731825 -0.523813
103.858888 63.296737 49.722829 -2.540512 -3.551762
164.533673 76.202621 76.327347 2.127587 0.616403
238.877730 61.638018 106.690700 1.864879 2.163865
189.169116 65.096536 43.231363 -2.608403 0.662201
175.921842 48.557216 55.184181 1.670730 1.016020
137.586911 53.723721 64.355630 1.725064 0.603657
281.596918 56.832538 28.037810 0.379918 0.250549
163.684939 21.822258 41.035928 2.972661 0.943487
379.594545 28.074727 52.775099 -1.599540 -0.990014
135.856443 40.381035 60.563864 -2.398543 5.029157
189.883429 43.864314 74.943792 -2.279587 -0.655045
154.816698 65.853273 62.515019 0.005456 -5.070195
180.968172 58.256505 17.962923 -2.729684 2.314338
210.937356 55.183363 58.883445 0.543714 0.576834
108.840356 28.672030 78.092154 -0.511300 -0.697338
201.799011 16.520837 30.734418 -0.893441 -2.180377
134.176475 61.756624 78.737634 0.829172 2.339964
264.186816 51.174207 68.918524 5.049240 0.374781
181.214523 102.272532 76.044646 1.055993 -2.252109
118.874570 76.527744 64.208592 -4.557683 0.905810
114.017408 38.601999 64.690866 2.199399 1.718283
210.589327 82.247143 73.846596 -1.970120 0.772255
197.898280 88.263474 94.220772 -0.958503 -1.993048
145.353109 14.224413 81.773758 0.112232 -0.122287
144.377378 59.247548 73.114610 -3.423479 1.314202
185.891933 42.547212 91.821761 2.164296 0.662691
117.311874 56.133764 63.063018 0.468685 3.273938
197.448346 60.721890 43.507964 -0.230365 -1.854882
105.219600 54.939670 62.488645 -1.857094 -1.193618
115.973744 49.060587 47.868076 0.280283 2.958226
216.062457 67.166802 52.804850 -0.851169 2.719169
454.819299 64.960952 35.148321 1.308178 0.764684
216.414061 53.349877 47.612187 -5.588727 1.229250
184.203275 47.997975 32.857894 -1.859367 0.203237
125.006593 16.274016 61.541301 1.150458 -1.906608
180.729897 80.852653 73.249277 -0.599538 0.244875
107.391769 86.017723 47.244069 4.393649 0.930971
251.872853 62.047757 57.302592 0.105337 1.599636
179.422172 63.155939 57.368143 0.996736 0.640244
163.815353 60.010950 92.804035 1.107120 0.418111
199.190614 31.106731 41.094791 4.082868 0.988875
218.856490 84.941544 43.138429 0.105157 -4.039555
395.307323 104.434613 58.910412 0.692309 0.974133
275.016063 78.073122 75.711928 -0.575152 -1.122206
228.613997 39.449635 69.405950 2.272063 1.096573
118.351390 27.024075 93.139365 1.837302 -1.576258
261.808682 41.017899 31.758524 1.134047 -0.677074
300.194476 46.184176 71.153414 3.535751 -2.121672
203.054506 85.823592 66.703465 2.443803 1.622829
137.538771 66.333380 44.684745 -3.061510 0.669167
119.431468 51.676132 58.280148 -0.311542 1.500769
105.521248 51.660289 75.024402 -2.138686 2.384786
164.325583 51.961607 44.907468 -3.507347 -1.426415
108.919349 50.285238 51.414718 1.552203 -6.258860
183.897677 55.593752 84.837939 1.094677 -3.006507
152.339029 56.907969 59.016192 2.352010 1.336143
138.225727 44.166858 30.933475 2.996815 -1.372795
144.098328 61.786567 68.316200 -3.272697 1.184368
159.119391 53.785676 74.253476 -1.669328 -1.062625
175.312035 58.404699 63.104193 5.282771 0.142602
182.432761 34.833276 40.072952 -0.007537 -2.814960
154.905682 57.294226 76.993050 1.472124 3.602610
242.876511 78.154603 87.990668 -3.761491 -1.695228
147.891571 49.546296 39.725569 -0.473371 0.754245
104.852815 91.400291 109.848807 -0.299908 -0.569877
112.750692 71.258410 63.222187 -1.890164 -3.733610
201.258102 94.803252 50.862377 -0.127074 0.948941
131.169028 92.952664 75.339259 -2.362755 -3.261985
166.735597 52.314158 26.386992 4.352768 -2.539859
134.760889 59.106798 80.115423 2.514652 0.522224
323.526099 63.194326 49.479870 1.813183 -1.897959
218.801169 89.624705 78.691564 -0.367547 1.109469
244.036287 40.329469 46.760643 -0.569694 -2.343411
261.131847 81.266440 50.825056 1.024865 2.041933
144.956480 40.301344 47.051665 2.208636 -1.093068
182.816809 77.059093 7.844181 -3.143222 -4.329341
100.758753 75.502442 30.360927 0.197840 0.649614
359.210486 91.649542 45.254752 1.119160 -0.698624
201.619677 28.075587 53.958808 -0.855363 -1.347790
142.865708 78.394610 36.111455 -1.126875 2.092344
214.063060 41.415681 70.079194 2.469385 -2.058848
163.275935 54.108774 67.830638 1.142007 3.572091
174.364750 41.013285 55.572984 -0.316860 -0.877225
175.947976 83.476767 84.877806 -0.325992 -2.016031
243.322311 40.931553 38.786995 2.802660 2.459597
208.097433 44.659342 57.637439 0.542161 -0.517899
114.618111 25.598900 86.801485 -2.003363 -5.237518
129.169324 58.573162 62.789537 -0.342731 3.270651
199.590996 61.813748 76.311517 -2.672561 -0.454453
234.656333 56.755820 67.788089 -0.333747 -1.852934
147.152849 22.016300 51.768130 1.070792 -0.596635
133.763488 62.808182 40.939201 -3.673950 2.202650
103.373151 33.360725 117.339199 -1.813455 0.097850
136.691902 84.215957 87.533390 -2.305907 1.020498
171.314104 59.042300 73.637415 -2.281385 4.347031
262.021747 72.297562 61.006959 -4.633303 0.654114
106.676933 82.560395 78.098356 -2.002861 -5.126941
352.630655 81.660744 44.818821 -2.099727 1.202105
104.847333 74.309696 80.322017 4.540436 -2.865583
109.834660 47.542362 55.560460 -0.952630 -3.480761
133.299123 87.023454 45.605698 2.696511 -1.470179
145.998588 97.162027 51.183965 2.632007 -3.075218
338.706168 56.329945 63.447059 1.816127 1.406384
193.939769 49.566059 32.611595 4.653727 -3.790570
202.638836 100.429286 64.618228 -2.019084 2.891766
109.669454 51.011839 69.481203 -0.346195 -1.675525
239.857022 46.868165 112.227800 -1.571133 -0.162216
240.988123 78.142284 71.604585 -1.619550 -1.505098
210.683154 54.073959 69.977688 0.414485 -0.882213
141.133388 73.474551 31.844498 0.670415 1.870682
121.234629 70.062535 55.253356 1.936346 1.926334
112.281941 80.677412 68.793510 2.226268 -3.276540
122.611384 97.119062 19.087044 0.794770 -0.037626
233.529876 65.777780 106.355062 4.020701 0.845625
243.389222 54.586663 51.353710 0.718972 2.998579
128.832779 94.187290 50.296069 -0.165354 3.775952
209.279032 24.219510 50.084205 0.192929 2.085435
214.706310 55.387447 38.396600 0.787760 -1.119600
145.694449 38.758094 56.234500 0.269413 -1.019679
115.739522 52.884798 78.539226 -2.070457 0.644453
207.476172 75.078815 54.581227 -0.355465 -2.137682
176.474484 87.114983 63.465167 0.614421 1.161852
249.810201 62.686888 60.803814 -0.738221 1.068845
215.617397 75.744127 76.820402 -0.097968 -3.563325
174.367084 41.504894 66.236826 -2.399860 -0.508902
127.452663 40.363270 57.659391 1.588660 0.929212
117.655881 71.509365 74.695193 1.016337 3.604235
147.467311 68.205910 45.756288 -2.003501 -2.700617
117.648195 42.762658 37.284766 1.881974 -2.084639
243.171063 89.524206 53.082802 -2.891312 -0.780947
251.439124 57.354083 67.629326 2.585089 -3.109457
129.367631 94.216726 65.202375 0.465272 -0.310895
203.346532 76.133316 47.509967 3.002655 -1.288859
104.115064 51.916792 54.912926 -2.328133 2.021955
229.913189 99.248073 31.927297 -2.841529 -2.038893
148.986962 66.872299 69.434989 0.293183 1.897316
170.557293 108.643220 26.141256 -0.684998 2.996931
338.199874 69.600046 19.766698 -2.353333 -3.203877
208.925493 72.632993 48.497327 -1.704101 -0.502761
171.871703 58.533648 61.928171 1.328999 -0.368761
146.794114 68.050204 56.355560 4.171603 -2.979780
142.063695 87.359130 30.044089 -0.619130 3.968595
165.878487 34.254540 33.685566 -0.934579 -1.123767
160.977011 83.431067 42.289779 -1.624304 0.635624
239.689050 48.816191 58.406657 0.549789 0.284282
180.030858 64.747311 54.677331 1.752729 -0.114244
120.769351 48.335171 57.770732 3.021966 2.985111
140.771491 35.257568 91.080295 0.352262 1.816115
130.622443 58.550306 32.560027 0.100496 -0.722197
132.244817 21.726877 74.080016 -2.154283 -0.494277
126.747128 53.803819 71.316826 -0.038628 -1.619232
114.508024 39.686315 63.217923 -0.463302 1.836579
136.770648 59.497440 49.088455 2.011581 2.177696
116.506188 58.335836 59.822744 0.049525 0.817790
269.853626 51.260250 31.848945 1.459876 -0.568227
214.506951 76.274118 34.288457 0.001296 -0.119546
174.324242 69.449507 58.430432 3.072661 0.715156
111.093023 70.310228 41.930385 -1.768985 0.251986
118.259448 87.637478 63.891022 1.129068 2.705240
161.721080 56.510920 59.681942 -2.720063 3.989145
139.321890 91.962575 55.960491 -3.391672 0.611324
231.893448 13.365730 38.650323 -2.378824 -0.914262
294.827191 66.156916 38.767824 -1.686265 -2.605655
170.033794 37.264954 59.304199 1.034295 -3.384477
220.533417 43.400469 58.898632 -1.506129 -3.238997
141.161994 79.560956 33.421213 0.167684 0.135405
147.552499 56.866528 87.679732 -0.109662 1.232427
220.835239 56.398380 80.527099 -0.657096 1.107524
173.837994 96.535051 54.355788 -0.250847 -1.546577
268.817010 22.019009 58.066076 0.134145 0.225886
157.647813 73.403657 41.123059 2.607066 5.013643
149.300648 72.605569 64.995826 0.036374 0.568309
113.841930 66.151258 31.779848 0.900591 -0.912685
280.429151 69.462025 69.229235 -2.992178 -0.109511
206.243831 60.962717 45.862778 6.260392 2.392292
173.969028 64.487008 45.006728 2.303409 0.136125
202.024636 44.470306 87.102665 0.759494 -2.448043
209.924675 72.943088 85.814573 -0.479744 0.069958
185.491073 26.907443 50.554981 0.599675 3.736348
215.357384 62.054841 73.982547 2.395973 0.157758
108.882887 65.311480 78.436569 3.448727 -0.462785
110.498853 66.159527 56.495717 -2.153354 1.089789
185.136696 53.660433 35.308081 3.175139 -0.799639
198.076154 73.916950 71.826279 0.238889 0.902627
305.163639 30.740017 53.294952 -0.281170 0.061273
209.402396 17.628967 50.496733 -3.067189 1.448567
158.552545 68.900521 62.002300 -1.013378 0.660506
204.597451 90.892810 76.705205 -3.610459 0.015258
165.935387 65.026259 62.529985 0.746060 -2.660151
174.518643 69.243943 69.897715 -3.735388 1.710198
121.467622 26.035828 60.877300 1.317090 1.092062
175.571519 32.907402 85.788333 2.779900 -0.818662
177.934568 90.818720 39.482343 -4.390889 0.079489
258.406946 73.242530 102.909999 0.911784 -3.165467
105.918263 1.275300 66.900763 2.175941 -0.950393
109.156478 91.109967 71.199046 -0.518280 0.041681
366.189900 73.591069 73.000234 2.224976 1.297167
120.471482 42.555455 59.352748 -2.391827 -2.013770
103.759733 87.865491 48.909800 -2.724445 0.464163
209.968552 96.798358 65.986038 0.817248 -0.108226
168.020135 63.284676 68.969667 0.774317 -3.110182
251.672190 97.503305 55.328996 3.544774 -1.259184
173.435302 63.192661 38.208278 -1.865414 -1.330481
178.774033 79.600994 43.610303 -1.896281 -0.251169
100.863834 86.385157 60.471997 -0.970077 -0.706909
182.715437 24.972842 66.988568 3.309630 -1.015065
217.414765 46.561195 56.448857 0.500416 2.768879
158.773027 101.219103 83.259809 -2.592880 2.097630
210.355987 83.666474 67.663305 1.492495 3.433125
194.188153 57.259452 56.297892 1.924587 1.706560
169.830702 46.930585 69.879243 -1.282634 -0.845828
240.360599 78.559635 65.366225 -3.107440 1.528021
248.068501 69.317626 67.711054 -2.639785 0.518907
213.529139 63.389540 55.048338 -1.971927 -0.199614
162.689094 96.043301 81.902118 2.040163 0.828828
116.958847 54.757960 67.527931 -1.324015 -0.445076
363.987143 57.448066 90.467291 0.378002 -1.048876
110.047969 33.067628 35.908412 -1.927138 -1.665501
154.257492 81.334876 48.172540 -1.561292 -1.837029
193.573556 44.910136 57.046513 -0.895581 -2.961151
182.160692 90.853339 80.727117 0.479356 -2.261974
114.269912 53.008696 41.128666 -0.509504 0.896925
130.683235 83.664715 68.081636 0.857678 -0.500983
180.553645 75.633540 71.715057 2.988281 -3.398359
134.608445 42.336641 31.213191 -0.934540 2.900829
121.082799 48.298152 90.349483 -1.145780 -0.910871
209.185577 58.624674 87.510489 3.921465 -0.391201
254.095711 47.129740 66.425453 -1.183738 2.158765
396.044177 53.385244 89.425407 0.805643 0.169124
122.060401 66.867629 77.726072 1.921635 -0.399282
254.503940 74.142471 54.090393 -0.398345 1.997852
125.260900 121.717896 88.095338 0.396871 -2.516496
121.769568 47.260380 66.678611 0.733595 -0.583636
126.901491 53.196836 67.972808 -3.195516 -1.069820
155.793820 31.044103 67.043082 -0.039039 -0.226927
256.417549 21.322013 80.480091 -2.483852 -1.425569
100.819713 50.753133 45.572088 -2.475530 3.624389
268.200430 50.502751 78.110617 -1.791454 0.133647
326.173132 52.673621 58.937441 -1.969960 2.418257
203.369437 50.966260 71.675416 -1.975008 1.010873
132.268886 42.636638 77.419632 -1.451340 -1.340224
159.242122 51.630800 83.206771 0.729788 1.306862
349.805925 54.040566 45.652664 3.137400 2.748923
295.274536 23.084708 85.308394 0.487821 -1.108974
252.043464 38.296719 80.008833 2.252316 -4.885901
151.943126 54.189972 47.502946 -0.582725 1.697583
308.469979 77.520852 51.851495 0.866388 0.342789
347.771002 49.247708 34.720635 -1.254999 -0.144960
166.415611 29.005031 65.220660 3.499424 0.294476
109.095786 50.191809 70.356056 0.991990 -1.372547
230.491578 52.701959 38.183171 0.010535 1.092087
177.549249 30.128977 76.611580 -3.173206 -1.271189
186.805340 102.152524 58.775728 0.252888 2.751272
136.210327 56.678400 22.154800 0.744259 1.228606
153.942756 43.105354 28.465253 -1.206243 2.068641
167.552815 34.829565 88.210840 2.480488 -2.440616
150.450880 75.993037 87.491817 -3.720250 -3.455872
175.354264 57.156711 40.913891 -1.970503 -1.235502
156.070827 48.297927 51.181870 4.106895 1.530944
145.141417 72.263520 69.188201 0.085539 2.166647
106.974801 72.076703 49.332346 0.890574 1.058516
141.748947 61.413611 48.777941 0.460442 -1.210167
113.595734 81.619188 70.307265 -3.137549 0.467066
188.490363 54.323567 71.865288 1.412550 3.411340
178.946068 35.312732 61.611591 1.231778 -3.427466
174.551888 60.556174 86.281518 -1.139800 -3.297675
160.915400 110.849179 113.866672 0.606495 -3.794516
212.703519 39.004033 90.196350 -2.393316 -0.154048
200.087806 70.361532 61.590510 0.005300 -1.323792
124.562311 66.725581 42.981787 -1.805977 -1.132270
253.919687 47.924372 53.682096 1.026203 -0.025871
120.459263 73.539761 42.687271 -0.234867 -1.857226
273.633822 33.643047 54.813653 0.027247 -0.537116
167.355923 69.954266 77.117650 0.993844 0.589420
107.538936 104.140976 15.862803 -1.329829 0.176706
189.071869 45.660163 74.381682 0.584600 0.813919
321.166547 36.572507 61.775020 0.555767 -2.115293
238.184305 70.262519 44.414191 -1.068760 1.045751
164.365693 82.471859 79.209799 0.768508 0.721088
113.104191 58.760896 51.090472 1.485502 -1.770633
221.534566 47.251429 32.420991 -3.494366 -0.567935
143.522607 15.625397 71.096801 1.479619 -2.353963
156.184402 90.640511 74.278677 2.229147 1.629875
173.311165 63.184125 84.081031 -0.615553 -0.843643
133.213935 71.109267 98.763822 -0.808060 -3.650345
154.839303 58.912424 47.252726 -1.494780 -0.259531
208.209240 37.805874 32.217325 -0.157650 2.153220
155.215997 62.475332 52.206944 2.801365 0.438746
117.140277 49.979159 88.076221 0.106339 -3.421122
119.830530 78.734686 45.643523 -1.690701 0.354892
270.421206 49.152083 93.674261 -1.085760 -1.993334
147.777189 61.973945 66.179721 -2.176494 2.290322
123.973772 27.720906 51.239422 -1.617868 0.589727
121.932930 91.102596 61.348190 -2.029394 -2.896274
295.853589 41.779916 61.426852 0.001844 -0.734319
174.887682 32.411846 66.085085 -2.921321 1.062068
201.360667 58.334505 105.656077 1.598052 -2.514766
169.912821 33.412953 72.312632 1.948812 2.188718
313.216579 55.628437 79.766279 1.938409 1.092480
125.436578 90.171706 85.169394 0.839507 2.833012
259.190190 72.008984 101.018040 1.974753 -1.787407
161.444388 41.048311 84.995710 -2.585217 -2.912503
177.945465 57.201477 73.454142 0.626921 -0.831887
353.061603 28.974853 35.616769 4.383959 0.039145
104.667387 66.035979 56.077318 1.420539 -2.454497
304.638823 48.077423 64.747479 -0.076364 -0.306721
274.386432 63.035582 45.053035 2.371942 1.608022
145.997204 30.788157 82.900910 2.539664 2.048804
102.779778 84.087590 55.793528 -2.400653 1.689040
188.834747 63.464759 34.111093 -3.519377 2.401198
357.769389 31.887385 76.112273 -0.684676 3.124001
177.085914 64.759990 82.170315 -2.833483 0.311932
168.462866 51.639975 36.902916 0.861070 -0.203781
175.384531 44.271390 39.188180 -0.577699 0.696122
138.783512 48.540435 77.864862 -0.542326 -1.411438
151.342358 20.757703 45.364155 1.164053 0.851850
192.481386 61.819769 66.259684 0.723547 -1.012579
265.284963 59.710969 75.442120 -0.955236 1.807670
148.739330 48.353939 35.604935 -3.315113 0.230738
116.049707 28.116261 33.708678 1.944364 -2.755623
273.222933 81.697160 52.383808 1.910915 2.995594
197.928461 59.029507 65.789191 -2.214683 2.061945
248.165218 64.563552 60.681470 -0.311278 -1.631498
160.131647 83.861506 65.718990 1.106816 1.470649
159.393514 44.901886 57.024064 -0.997625 -3.459526
114.410878 33.548301 95.952638 1.297403 0.376032
125.444359 70.710013 51.685864 0.041043 -0.383257
178.599879 41.762578 98.447321 3.294605 1.388396
271.193397 69.651458 30.119962 0.168528 0.983408
365.376542 45.692889 74.498884 -0.431782 -1.375508
175.400171 77.914282 66.067595 1.391311 -2.397116
186.864105 64.298344 48.912715 0.246321 0.059369
127.943204 26.341335 67.932671 0.378192 1.127709
396.292335 80.624832 69.673235 -2.917501 2.896219
128.657735 57.325919 60.857635 3.630573 0.933361
162.241734 80.967117 40.473782 1.643569 -0.518878
162.414967 79.485682 88.481551 -0.960691 3.116157
154.370663 35.217472 54.642245 -1.686410 -0.791559
153.780393 87.985082 97.067399 1.294820 -0.655346
125.606712 36.882371 39.901864 -3.390193 -1.805016
200.792929 55.779956 44.581811 0.806603 2.589163
102.141845 55.455783 14.921125 2.330727 0.135854
368.359267 47.783678 37.403911 3.081337 2.604605
124.640633 91.545576 68.381670 -1.560034 -2.510522
153.538808 90.692336 79.874159 -0.349273 -2.538004
148.857559 97.714133 104.261486 -1.481614 0.593038
121.918199 78.447977 76.138498 0.219376 1.652946
263.157778 42.275405 56.709558 -0.532075 0.196221
236.692787 54.654485 74.063061 2.082589 -0.856525
150.763193 62.311392 67.609995 -1.444322 0.093341
130.113850 64.910514 53.569745 -1.971816 -1.452330
225.321640 62.678248 47.796206 -2.611693 -0.047025
135.613492 89.508159 35.081375 -2.061979 0.810390
240.141313 80.612228 61.785836 -2.346996 1.344802
200.189170 65.113701 63.446905 4.460980 -1.336615
176.109519 54.334464 44.713212 -0.876935 0.174894
165.230858 72.553805 110.403287 -3.369417 2.538991
254.212159 40.580938 60.154577 -0.921983 1.589618
100.553062 32.537533 74.644858 0.041965 -3.524179
199.198913 32.941636 61.667638 1.014760 -2.364519
303.382879 57.837506 51.706097 1.234108 -3.356979
191.181954 47.688962 67.593182 1.448376 2.830597
139.789152 49.899775 70.166892 5.256100 0.325509
142.854248 40.465795 96.758666 1.711646 -4.082477
140.715608 60.237871 93.920829 -2.917589 1.308408
138.752633 70.372344 63.852968 2.126892 0.131521
295.490999 15.551516 86.636250 -0.489153 -1.906266
173.965306 49.940909 59.106552 -3.234256 0.638453
125.591841 84.197480 60.656599 1.176293 -0.177072
218.881981 75.224314 61.586609 -3.542028 -0.020658
198.468132 63.928172 63.582853 2.925783 -4.696321
120.722314 29.048895 45.983474 3.144652 1.666922
189.315329 84.964373 57.668854 0.305740 2.493272
121.929522 76.777255 80.593525 2.987288 -1.972322
335.541750 59.533278 49.209201 -2.575323 -1.213613
170.232376 73.924384 59.862432 -0.174672 -0.850022
189.649685 35.010649 93.295549 -0.493384 -0.704666
240.321334 68.749835 50.242374 1.241906 -1.240259
158.840162 61.687571 88.187239 2.636394 0.001964
116.506393 48.867473 90.577554 -6.571049 3.442099
138.054458 20.427331 1.180404 0.704432 2.297856
180.440700 89.477194 66.529509 0.983856 -2.578664
175.193330 53.229730 52.529490 -0.508174 0.185245
282.615297 84.343706 64.018033 -0.973078 -0.417950
215.210117 51.209032 43.591520 1.878027 -0.692556
350.238905 56.544159 74.815790 1.915845 -0.097603
154.349641 52.081542 96.780579 -2.620122 -1.919044
180.867742 67.693145 55.653243 -4.003124 -1.639023
149.705246 64.204330 77.600646 -1.765468 -0.265482
147.877867 85.815482 44.244680 0.620997 0.652085
108.817438 73.952507 87.083537 -3.433773 2.056100
168.314829 80.598856 60.416225 -1.953890 -1.030690
103.789530 53.209310 57.138463 2.153295 0.936027
249.002832 82.285755 61.631084 0.008756 1.266961
101.560646 73.497491 29.226279 -0.504568 -0.458553
185.637986 87.332308 39.439881 -0.105894 2.601549
129.472593 50.822357 42.917828 0.794952 -1.358483
259.462700 29.136937 67.825588 3.393844 -0.421837
123.525487 38.425522 48.058422 -1.785070 3.077637
318.301683 44.876320 62.139626 2.006907 1.288206
114.254273 85.395825 81.006802 0.249012 0.042677
216.564921 73.835478 58.601603 -0.516397 -2.364805
172.829310 72.133340 61.621385 -1.928716 -0.056589
109.476768 66.500420 48.043074 3.242571 1.439794
259.137955 70.394456 71.728896 2.205156 1.678288
104.255306 71.016174 94.975901 -3.334582 1.389109
156.394431 60.613333 24.543593 -4.609753 -0.339885
180.466514 67.448776 49.419782 -0.705821 -0.035925
244.565200 91.436460 70.296298 -0.236548 1.355801
204.017165 59.230098 86.312994 0.787949 -0.094610
209.262327 63.514576 67.707805 -0.840312 -0.162361
275.508337 96.083839 59.095328 -3.178150 -1.133925
290.057134 23.230749 67.844054 -1.076571 3.588219
205.383151 18.308825 88.711749 1.031095 1.990702
142.729186 68.829281 107.102845 1.866888 -0.239706
138.549154 53.994377 72.725719 1.634344 -1.526159
189.554370 109.431768 41.720084 1.384022 0.628018
159.098204 91.022886 44.443180 -0.045518 -1.605319
141.101398 46.807284 52.799438 2.355474 -1.451074
203.698001 50.363982 53.017100 0.532816 -3.998400
141.750429 36.037926 35.678605 1.378699 -0.504888
120.872865 65.466916 102.485502 0.047390 -0.936286
179.091206 30.381209 115.358895 6.685475 -0.646773
116.232395 37.848124 65.744885 4.328259 0.634976
147.371406 98.808263 55.351151 -0.138585 -0.177870
271.016971 32.937633 55.800749 -1.139697 -1.614958
193.903972 56.385436 86.245817 -1.928419 0.937045
351.872340 37.157486 55.159515 1.360879 3.680869
173.246793 76.873004 39.516362 -0.457824 1.302829
275.507080 65.454088 74.410133 2.215484 -2.806293
176.229007 71.933551 47.362016 -0.307595 -1.704811
190.756137 86.377991 63.157607 0.829967 0.997226
165.717483 23.736927 86.811441 -1.253238 -0.062765
160.685863 38.761965 78.500216 -0.859007 1.478084
209.406151 52.178158 78.902513 -3.168345 -0.987883
129.148852 64.893793 102.021897 2.083460 1.581670
188.250595 34.389250 61.655520 0.465418 2.619027
149.495064 58.975423 70.901793 1.431552 1.443387
348.530914 82.444750 53.680799 -0.012754 -0.997271
143.435109 55.494548 102.114069 -1.492604 -4.120750
288.378290 69.213660 50.266215 0.816275 0.022292
199.152545 60.481975 53.404760 -1.369259 -0.766425
146.154862 77.534774 58.313236 0.296494 2.268872
220.615364 22.131771 49.658712 1.079072 2.753223
160.448809 62.595304 66.379022 0.414879 -0.548908
172.380092 66.479192 72.806617 -2.567992 0.322157
131.148125 51.110659 68.244762 -3.529387 -0.021355
102.478427 82.043718 55.520322 1.513062 -3.892911
137.031376 63.282711 85.711262 -2.810389 -0.397832
221.450942 84.313309 36.144719 -0.732056 0.417782
298.947817 40.606289 40.285596 0.847274 -1.835634
224.084165 63.046959 69.572295 -2.318375 -1.130560
110.114863 13.238368 79.619392 0.590586 -2.863284
128.941003 73.409395 75.311401 -1.815139 2.794869
117.823441 75.263850 72.369243 1.122818 0.833538
152.243795 62.036098 88.375131 -0.739759 0.712831
166.200032 91.319138 56.425581 1.646372 -2.591276
198.195810 44.916112 53.389967 4.097359 -1.369188
147.553668 46.832139 33.996009 -0.900098 0.203528
142.904483 64.842784 73.940423 0.230566 -1.708956
183.101285 37.980535 61.352470 1.330709 1.150196
225.780584 44.906564 17.836776 1.738453 0.763185
259.433095 66.602871 46.259350 -0.121225 1.926653
189.318569 79.019357 39.552922 -1.764359 -0.515238
207.294042 73.030197 108.635586 0.361659 0.475360
193.756765 89.672415 59.469650 -3.257809 0.100723
117.121912 63.333564 38.569231 0.182437 0.571394
128.487660 62.008708 61.018015 1.426790 -0.242173
128.505651 63.727319 52.223158 2.862521 1.956449
307.066196 48.665423 18.077996 -2.237618 1.529538
161.560772 75.861978 64.724886 3.540307 -0.851721
259.042430 50.499682 33.726189 4.227347 -1.949258
222.617226 83.250735 66.525382 0.018549 -0.668822
213.761583 47.704563 11.361847 1.112567 -0.353783
260.439610 34.104010 59.637842 -2.470378 1.886070
117.013483 48.069002 78.617246 -0.039027 -1.657582
247.942405 76.535104 84.668661 1.759499 -2.083851
152.499620 54.238098 44.074617 2.039815 0.998237
159.495131 70.820789 43.682278 -0.744945 -0.409942
174.629795 49.745838 66.789812 -1.579663 0.694814
260.399736 48.071038 37.415378 0.695706 -1.889086
152.133310 31.958916 4.794060 -3.942044 -1.814990
170.457116 61.131046 53.615137 -3.023728 0.848583
163.105708 80.971761 53.263154 -0.039382 0.784531
231.335869 30.828913 65.810913 -3.064391 2.311115
186.111434 34.866517 54.139079 -1.865035 -1.637727
160.738624 99.696610 50.611953 -4.567967 2.131285
191.531433 100.329601 95.993746 -0.892644 3.750948
167.917890 89.677582 44.902763 -3.295583 2.644541
120.167295 19.007508 37.752992 -2.686799 -1.477528
137.842297 67.833860 54.228067 2.603106 -5.176970
136.014267 80.903561 80.557004 3.418839 1.165647
131.898779 76.094942 76.421536 1.635912 -0.378959
129.850033 65.246787 75.491998 2.567774 -2.198027
212.781740 49.251599 72.143502 -0.914326 -4.010568
380.903867 58.360645 52.470278 1.912010 -1.153125
180.222648 47.335071 49.691573 0.737148 -0.021341
266.346685 61.958153 120.334502 2.374689 -3.365321
226.586686 66.994799 59.589576 0.751606 2.391125
267.012401 61.276167 82.552954 -3.175061 1.259365
248.226094 70.804884 55.199929 0.750698 0.494926
195.573935 51.153578 97.655302 2.160954 -0.553207
140.390568 73.444021 39.943824 3.933775 -3.431814
110.639168 77.311525 92.847028 -1.041553 0.211507
111.736279 76.571609 92.378467 0.913584 -2.371856
158.149181 29.130720 54.183108 -0.539462 -1.587740
153.415799 50.219360 59.963018 0.689281 1.163176
224.434703 71.275116 75.479345 -0.449922 1.371380
232.414232 96.271465 45.537133 1.483083 -0.564847
169.872573 58.299989 70.047082 1.053465 0.409963
243.687228 29.903728 16.120338 1.889054 -4.059462
146.215485 49.741668 56.317472 3.231340 1.802705
262.794124 100.232032 50.623087 2.845847 -0.696818
206.265192 68.045665 77.663664 -2.022211 -0.773536
329.870658 73.133617 82.871152 -1.631593 -3.318821
151.591561 75.240229 64.237995 -3.576489 1.377319
370.489508 57.761108 51.892245 -0.980602 2.351525
274.619794 60.963684 49.156199 -3.023866 0.215950
182.699436 73.536691 14.993435 0.680159 -2.024224
251.983627 74.502453 69.973037 -0.769778 -1.311039
171.575425 60.585232 36.390026 -0.795569 1.466365
105.228554 78.231843 71.304982 1.063114 -0.179733
223.543113 69.575479 60.207584 2.226813 1.246176
164.154592 34.427814 61.642354 1.689682 -1.542733
163.259093 77.600518 45.238645 -0.935933 1.938836
144.812101 75.471403 73.255895 1.505853 -3.618786
246.130316 42.363517 51.126291 -2.288251 -2.503065
117.665167 77.615168 83.162001 1.677294 0.712178
187.888578 107.804188 69.217964 1.696964 2.231902
119.307362 64.589374 61.294026 3.078835 -2.132274
183.865751 71.501472 62.525525 -3.065032 1.753158
158.527213 69.568267 88.667121 0.167042 0.548045
250.748364 77.195123 64.167052 -1.506680 -3.190166
136.759683 40.346671 69.784735 1.884971 0.718643
103.207185 61.073341 116.887136 -0.247456 0.118370
104.547689 90.656180 44.648551 2.848459 1.091539
200.826507 72.539771 64.681204 2.311577 2.893664
325.479362 74.314333 57.569058 -0.686967 0.700497
138.174058 83.520202 46.796528 1.627445 2.920455
133.543635 60.245373 43.312195 -5.351418 -1.753197
216.629495 96.759107 37.338471 2.452852 1.980171
130.180881 69.101470 61.507864 2.798079 -2.349179
227.510099 73.713610 69.617101 -4.876149 -0.994289
104.373505 69.124846 55.975111 4.818609 -2.147926
204.062289 23.348186 87.665078 2.267447 -2.466559
174.382382 54.114578 47.394349 1.395584 1.249116
160.520593 63.924786 43.278011 5.101442 2.659700
114.745028 64.304107 78.003093 1.578639 1.724807
149.075379 58.553273 68.107863 2.238115 -1.223676
241.745460 51.052147 76.840481 1.509469 -0.167744
215.162132 59.045425 65.845453 1.935392 2.761574
256.614945 35.699946 55.015473 -1.954954 1.061408
104.862230 56.495901 54.916937 1.812250 -1.136766
259.777632 38.810443 132.454780 -4.605296 -1.127462
116.324200 46.908679 35.580042 -5.816704 -1.657263
189.425396 79.669562 74.825811 3.603100 2.045050
128.942898 84.729378 69.152970 -0.777042 -3.283382
193.490306 89.377080 43.938822 -0.111156 -1.683768
192.517902 72.324964 57.541623 0.149458 -1.777165
274.933147 99.792374 78.505028 0.605004 4.329703
166.840777 66.030251 38.115925 -4.164839 2.768666
102.377545 59.944235 75.889882 -0.916761 0.884165
120.522046 50.626681 69.438596 -1.064021 -1.081236
118.271038 68.360832 63.107134 -0.812677 2.629669
169.407586 40.160894 47.114833 1.629301 3.454016
238.107778 82.094799 72.460253 3.846915 -1.334768
218.539552 95.000919 61.935346 3.269081 -0.867905
144.030096 70.879130 41.155953 -0.100681 -1.494796
118.368595 24.280329 61.295258 -1.027218 0.333666
219.800200 22.427129 57.838545 -4.558645 0.492586
146.192171 56.715279 36.730087 1.442635 0.977820
162.187959 82.680734 31.720407 0.899235 0.996258
213.073747 89.458565 19.495625 0.013195 1.215680
105.316790 52.101542 94.609690 0.251239 -2.202961
223.333520 44.791370 57.898134 0.846268 -4.398015
100.104513 48.105375 78.058171 -1.647323 0.907158
205.020103 34.888492 75.303529 1.547934 -0.596734
188.151232 25.192359 83.573858 1.944716 -0.448711
235.628071 20.992028 74.395757 -1.350915 3.089134
151.752333 55.151173 73.367030 2.584302 2.454136
142.283142 78.068126 59.695234 1.392844 0.252137
128.705399 63.306557 69.329392 -0.397590 -1.132893
175.254039 63.105818 86.413130 0.800931 2.594333
226.411575 65.828930 47.800428 0.394191 -4.567455
221.751363 54.928348 18.775826 1.581261 -3.877118
151.077378 52.182098 54.236992 0.507277 2.517219
159.740196 31.331743 83.236692 -0.916436 -1.404124
118.636039 62.670141 49.236403 0.196960 -0.569848
189.144011 87.758625 39.241035 2.104221 -1.032500
267.630364 57.264678 44.886919 1.051749 -0.632401
167.548083 107.188667 73.510598 -3.204664 -0.270600
120.931756 50.538719 74.342540 0.758242 -0.213113
155.574229 40.475739 78.723160 -1.762950 -2.274639
196.367956 65.138718 46.843833 -0.473063 1.426895
239.277956 68.704361 25.479112 -1.818821 -0.103202
132.839311 32.210291 69.152949 -1.575404 -1.290604
151.018471 28.453091 72.659017 1.893557 0.222619
211.200630 57.333368 76.078211 -1.273830 1.309765
166.164287 46.697674 48.847885 1.033434 3.638224
133.785478 73.734771 58.234750 1.202396 2.904464
217.808915 92.050818 77.089113 3.059692 0.791280
226.591842 44.183012 47.001248 1.382543 -1.343035
236.978453 55.451542 45.720510 -0.643307 -0.869565
108.602329 78.666322 46.941922 1.441230 1.371316
113.329218 69.225646 87.442804 -2.454728 3.779518
219.444955 80.375404 80.011503 -2.347000 0.315471
362.696362 58.542668 52.767649 -3.681358 0.929166
154.349381 106.861478 44.333200 3.082354 1.299292
161.089061 78.905138 75.836948 -0.261402 -2.730701
136.837281 41.807913 76.825364 0.779865 -0.308255
112.131100 67.145438 56.439709 -3.050210 -0.666321
170.027121 37.199194 89.929909 1.927257 2.715867
153.213164 61.597743 94.118824 1.063354 0.554248
174.377116 30.935627 54.706099 -0.598138 -0.881611
219.795461 63.388076 15.421283 -2.646980 -0.036161
179.708173 69.033162 76.474876 -0.471539 -2.189666
126.817331 67.134756 58.833010 2.517072 0.408571
147.152472 37.074730 45.904837 0.285452 -0.219481
126.702699 64.887861 95.588797 0.636357 0.326199
145.597788 51.667744 83.768607 -1.246962 0.373648
115.330316 49.358138 78.799468 -0.420360 -0.186252
124.556681 81.723641 50.711407 -0.435839 2.504988
215.413647 33.988241 63.269123 -3.623300 3.127833
152.136669 81.382901 103.717022 -2.737826 1.921211
108.284452 59.194828 70.621383 0.471489 2.300409
151.335920 69.183661 70.108267 -1.573162 -1.008935
107.357979 55.243669 76.489769 -2.950079 1.098708
143.266671 76.618340 58.426640 -2.874710 -0.941544
117.826063 47.764175 62.023194 2.052312 -0.450328
173.727474 69.400956 52.953017 -0.052719 0.572293
134.198474 57.940952 47.360474 -3.479599 -3.059693
209.198655 74.276110 16.157875 1.036533 -0.222661
209.425751 55.641933 96.754787 -3.293740 -0.051045
107.271022 72.027572 19.620277 -1.230306 1.436850
116.506526 69.553599 52.204540 1.359773 1.514376
235.991670 71.968703 80.628243 1.892369 -1.972208
140.226346 38.666154 49.422625 -0.865354 -2.143490
266.190593 70.191603 49.621493 0.401069 -0.167206
138.860490 64.199057 78.848440 -0.425084 -1.026695
126.423954 20.422836 91.847840 -0.550230 -1.288171
166.958493 71.280630 60.880392 0.553479 2.539721
101.164373 32.557949 75.166842 -3.150284 1.262767
179.724390 18.478208 54.021113 -0.794062 2.451202
105.007166 68.423051 94.035825 2.565502 -1.304721
173.297362 54.286423 42.764958 1.887962 1.595400
156.890983 72.314944 34.256513 -4.295284 -0.191961
123.888334 37.688269 19.210491 -0.227165 0.058186
153.778045 53.274636 59.824468 -3.010111 -1.525720
156.564418 79.540767 55.928049 -2.894757 -2.940653
175.921721 79.494843 60.093479 3.761176 -1.081592
199.477220 34.047797 85.205206 1.259748 1.117152
199.858212 83.076955 50.509841 -0.351723 -0.483270
177.921366 66.123776 91.294970 0.867107 0.910022
365.775720 45.852895 22.462166 1.670662 -2.531569
148.690358 50.518217 45.349566 0.001575 -0.093441
125.795024 88.090796 31.478090 -1.307782 -3.187893
135.589154 45.467064 74.566542 1.824640 0.902415
111.504603 62.256085 70.684638 0.655424 -1.280097
228.094120 50.464618 78.784439 1.484835 -0.886544
142.078037 69.554262 73.760126 -0.840979 -1.572979
145.983252 59.646590 53.804765 -0.109189 0.709598
182.466387 29.995649 86.899588 -1.636691 1.487533
100.139763 84.722384 80.274661 2.901051 -0.543083
147.252037 59.553689 73.357924 0.692608 0.319555
236.835085 47.522979 96.732785 -0.068185 -0.511423
133.569451 49.861896 42.233108 0.178846 -0.026738
254.876682 49.879265 72.278236 4.608619 -3.059179
127.127786 33.325156 72.161329 1.778436 -0.737882
254.617892 75.479416 34.714087 1.772597 1.589230
139.063005 43.440415 92.666491 -0.398543 -1.578377
233.537475 31.171477 23.293053 -1.872496 1.868783
132.396704 68.210665 80.479416 -0.799590 -0.960487
115.375405 80.939403 25.071814 -2.527921 0.951706
171.705325 66.432258 79.435919 -0.338862 1.047923
263.433978 63.034122 48.795585 -0.961090 2.417158
115.128674 72.854856 68.577845 -0.837970 3.672486
221.039776 51.401807 80.777428 2.721972 -3.292325
261.706269 63.882603 80.194123 -0.034491 -2.898313
176.497018 52.130125 62.359683 1.724213 1.506734
114.452777 62.970965 22.911420 0.916488 -0.431714
149.970839 80.151099 64.347560 0.491275 0.975665
116.622147 68.995989 83.719960 -0.511047 3.930480
116.861670 33.595751 89.649178 -0.948715 -0.994117
196.647212 30.759655 75.736199 0.513478 0.604206
226.325771 48.152550 68.917255 -1.468244 1.042888
105.470787 67.422856 46.965895 -0.688444 1.997609
202.996710 72.187897 23.038099 1.739104 -0.677671
337.306202 32.990492 63.321125 -1.373663 1.096002
229.829339 46.880843 67.431783 2.521734 2.302039
195.929292 47.839911 62.480092 -0.254453 -0.931915
133.713243 74.123682 68.543679 1.349955 1.926661
159.419434 67.049187 64.307920 0.925212 1.413685
192.089228 14.175881 87.140846 0.494606 1.404331
234.708030 94.604335 41.591975 -3.172277 0.697951
180.784843 75.584469 48.922949 -1.996654 0.295285
179.249033 50.780374 61.639099 -1.657088 -0.537372
208.065643 44.960641 93.366463 0.475569 -0.510594
116.625542 62.585059 34.107858 -0.875949 -1.506327
190.014362 66.242747 39.411292 -2.817858 -1.824354
126.959200 60.100145 41.907169 0.374265 -3.607703
184.566637 102.814378 65.656312 -0.994906 1.200211
107.402207 8.681545 53.808955 -0.539328 -3.772088
140.474986 57.709421 62.321717 -0.384184 0.283311
157.141838 68.615743 52.580064 -1.825406 -3.399330
